<svg width="94" height="15" viewBox="0 0 70 11" fill="none" xmlns="http://www.w3.org/2000/svg">
<path d="M6 0L7.34708 4.1459H11.7063L8.17963 6.7082L9.52671 10.8541L6 8.2918L2.47329 10.8541L3.82037 6.7082L0.293661 4.1459H4.65292L6 0Z" fill="#fc0"/>
<path d="M20.5712 0L21.9183 4.1459H26.2776L22.7509 6.7082L24.0979 10.8541L20.5712 8.2918L17.0445 10.8541L18.3916 6.7082L14.8649 4.1459H19.2241L20.5712 0Z" fill="#fc0"/>
<path d="M35.1431 0L36.4902 4.1459H40.8494L37.3227 6.7082L38.6698 10.8541L35.1431 8.2918L31.6164 10.8541L32.9634 6.7082L29.4367 4.1459H33.796L35.1431 0Z" fill="#fc0"/>
<path d="M49.7143 0L51.0614 4.1459H55.4206L51.8939 6.7082L53.241 10.8541L49.7143 8.2918L46.1876 10.8541L47.5347 6.7082L44.008 4.1459H48.3672L49.7143 0Z" fill="#fc0"/>
<path d="M64.2858 0L65.6329 4.1459H69.9921L66.4654 6.7082L67.8125 10.8541L64.2858 8.2918L60.7591 10.8541L62.1061 6.7082L58.5794 4.1459H62.9387L64.2858 0Z" fill="#fc0"/></svg>
